Access the xpdb data
…
Access the model code

The get_code() function can be used to access the parsed model code from the xpdb. This code was used to create the summary and find table names. The parsed code can be used to get additional information about the run. If the argument .problem is specified a subset of the code can be returned based on $PROBLEM.

Note that general code warnings and PsN outputs appended are listed as problem 0.

code <- get_code(xpdb)
code

# A tibble: 764 x 5
   problem level subroutine                                                   code
 *   <int> <int>      <chr>                                                  <chr>
 1       0     0        oth                          Mon Oct 16 13:34:28 CEST 2017
 2       0     0        oth                                                       
 3       0     0        oth                                                       
 4       0     0        oth                                                       
 5       1     1        pro                                   Parameter estimation
 6       1     2        inp ID DOSE DV SCR AGE SEX CLASS WT ACE MED1 MED2 TAD TIME
 7       1     2        inp                                    CLCR AMT SS II EVID
 8       1     3        dat                              ../../mx19_2.csv IGNORE=@
 9       1     4        abb                                              DERIV2=NO
10       1     5        sub                                          ADVAN2 TRANS1
# ... with 754 more rows, and 1 more variables: comment <chr>

Access the output data

The get_data() function can be used to access the imported table files. Tables can be accessed by table name or by .problem. In the latter a single dataset containing all aggregated tables is returned. If more than one table name or .problem number is provided a named list is returned.

Note when providing a table name it is not guaranteed that the table will be identical to its file (i.e. the order of the columns may have been changed and tables with FIRSTONLY will no longer be deduplicated).

data <- get_data(xpdb, table = 'cotab001')
data

# A tibble: 550 x 4
       ID  CLCR   AGE    WT
   <fctr> <dbl> <dbl> <dbl>
 1    110    66    68   105
 2    110    66    68   105
 3    110    66    68   105
 4    110    66    68   105
 5    110    66    68   105
 6    110    66    68   105
 7    110    66    68   105
 8    112    47    73    80
 9    112    47    73    80
10    112    47    73    80
# ... with 540 more rows

Access the run files

The get_file() function can be used to access the imported output files. Files can be accessed by file name, by .problem, .subprob and/or .method. If more than one file name, .problem, .subprob, or .method is provided a named list is returned.

file <- get_file(xpdb, file = 'run001.ext')
file

# A tibble: 28 x 16
   ITERATION  THETA1  THETA2  THETA3   THETA4   THETA5     THETA6     THETA7 `SIGMA(1,1)`
       <dbl>   <dbl>   <dbl>   <dbl>    <dbl>    <dbl>      <dbl>      <dbl>        <dbl>
 1         0 25.3535 1.46525 7.45219 0.214386 0.200119 0.00982739 0.00600636            1
 2         1 26.3257 1.26115 7.34822 0.218727 0.217040 0.00988562 0.00602074            1
 3         2 25.6334 1.46525 7.29462 0.215628 0.212214 0.00987192 0.00602702            1
 4         3 26.7952 1.48967 5.76180 0.213014 0.213097 0.00978966 0.00628043            1
 5         4 26.6949 1.48849 5.69320 0.213037 0.212436 0.00978746 0.00629408            1
 6         5 26.7278 1.48841 5.66352 0.213025 0.211937 0.00979166 0.00630166            1
 7         6 26.6462 1.49205 5.02679 0.209907 0.217267 0.01000230 0.00651552            1
 8         7 26.6205 1.48806 4.92877 0.205327 0.217191 0.01000980 0.00657615            1
 9         8 26.5629 1.47648 4.62271 0.210903 0.216647 0.00951367 0.00735274            1
10         9 26.5577 1.45700 4.41353 0.209440 0.216923 0.00903287 0.00873910            1
# ... with 18 more rows, and 7 more variables: `OMEGA(1,1)` <dbl>, `OMEGA(2,1)` <dbl>,
#   `OMEGA(2,2)` <dbl>, `OMEGA(3,1)` <dbl>, `OMEGA(3,2)` <dbl>, `OMEGA(3,3)` <dbl>, OBJ <dbl>
…
